<?xml version="1.0" encoding="utf-8"?>
<!-- Generated by IcoMoon.io -->
<!DOCTYPE svg PUBLIC "-//W3C//DTD SVG 1.1//EN" "http://www.w3.org/Graphics/SVG/1.1/DTD/svg11.dtd">
<svg version="1.1" xmlns="http://www.w3.org/2000/svg" xmlns:xlink="http://www.w3.org/1999/xlink" width="16" height="32" viewBox="0 0 16 32">
<path d="M0 27.2q0-0.8 0.576-1.376l9.76-9.728-9.76-9.728q-0.576-0.576-0.576-1.408t0.576-1.376 1.408-0.576 1.376 0.576l12.48 12.512-12.48 12.512q-0.608 0.576-1.376 0.576t-1.408-0.576q-0.576-0.576-0.576-1.408z"></path>
</svg>
